{
  "page": 3,
  "total_results": 10000,
  "total_pages": 500,
  "results": [
    {
      "popularity": 78.577,
      "vote_count": 4389,
      "video": false,
      "poster_path": "\/AuGiPiGMYMkSosOJ3BQjDEAiwtO.jpg",
      "id": 530915,
      "adult": false,
      "backdrop_path": "\/2WgieNR1tGHlpJUsolbVzbUbE1O.jpg",
      "original_language": "en",
      "original_title": "1917",
      "genre_ids": [
        28,
        18,
        53,
        10752
      ],
      "title": "1917",
      "vote_average": 7.9,
      "overview": "At the height of the First World War, two young British soldiers must cross enemy territory and deliver a message that will stop a deadly attack on hundreds of soldiers.",
      "release_date": "2019-12-25"
    },
    {
      "popularity": 64.497,
      "vote_count": 85,
      "video": false,
      "poster_path": "\/jgLlp0jF1EDG8N1rAulAUlv9pL6.jpg",
      "id": 653744,
      "adult": false,
      "backdrop_path": "\/a2UDJvvyDANSKcBRtEDLExVK0Pg.jpg",
      "original_language": "en",
      "original_title": "Sergio",
      "genre_ids": [
        18
      ],
      "title": "Sergio",
      "vote_average": 7.1,
      "overview": "A sweeping drama set in the chaotic aftermath of the US invasion of Iraq, where the life of top UN diplomat Sergio Vieira de Mello hangs in the balance during the most treacherous mission of his career.",
      "release_date": "2020-01-28"
    },
    {
      "popularity": 116.988,
      "vote_count": 0,
      "video": false,
      "poster_path": "\/mWOkjqqzWiaFC65i2nFuMzM9jne.jpg",
      "id": 668203,
      "adult": false,
      "backdrop_path": "\/wuJpiGNGv7wLg52ONizLrOugYp9.jpg",
      "original_language": "en",
      "original_title": "Scary Movie 6",
      "genre_ids": [
        35,
        27,
        53
      ],
      "title": "Scary Movie 6",
      "vote_average": 0,
      "overview": "[RUMORED]  The sixth and final installment of the Scary Movie franchise that ignores the fifth film. A parody of Scream 4 and various other horror movies, sequels and reboots that were released between the late 2010's and 2020. Takes place 15 years after the fourth film.",
      "release_date": "2021-04-02"
    },
    {
      "popularity": 75.143,
      "vote_count": 847,
      "video": false,
      "poster_path": "\/z4A6mFOLTMZAhCSPRyrtzG0SPbd.jpg",
      "id": 475303,
      "adult": false,
      "backdrop_path": "\/6fkqwqLEcDZOEAnBBfKAniwNxtx.jpg",
      "original_language": "en",
      "original_title": "A Rainy Day in New York",
      "genre_ids": [
        35,
        10749
      ],
      "title": "A Rainy Day in New York",
      "vote_average": 6.6,
      "overview": "Two young people arrive in New York to spend a weekend, but once they arrive they're met with bad weather and a series of adventures.",
      "release_date": "2019-07-26"
    },
    {
      "popularity": 75.124,
      "vote_count": 17733,
      "video": false,
      "poster_path": "\/7WsyChQLEftFiDOVTGkv3hFpyyt.jpg",
      "id": 299536,
      "adult": false,
      "backdrop_path": "\/lmZFxXgJE3vgrciwuDib0N8CfQo.jpg",
      "original_language": "en",
      "original_title": "Avengers: Infinity War",
      "genre_ids": [
        28,
        12,
        878
      ],
      "title": "Avengers: Infinity War",
      "vote_average": 8.3,
      "overview": "As the Avengers and their allies have continued to protect the world from threats too large for any one hero to handle, a new danger has emerged from the cosmic shadows: Thanos. A despot of intergalactic infamy, his goal is to collect all six Infinity Stones, artifacts of unimaginable power, and use them to inflict his twisted will on all of reality. Everything the Avengers have fought for has led up to this moment - the fate of Earth and existence itself has never been more uncertain.",
      "release_date": "2018-04-25"
    },
    {
      "popularity": 75.111,
      "vote_count": 25,
      "video": false,
      "poster_path": "\/dKgV8T3inB5EnVDg0Jeh2L6ttQ9.jpg",
      "id": 560044,
      "adult": false,
      "backdrop_path": "\/9foQsz7j1o2pGCKFGkzlxJteE5W.jpg",
      "original_language": "en",
      "original_title": "The Willoughbys",
      "genre_ids": [
        16,
        35,
        10751
      ],
      "title": "The Willoughbys",
      "vote_average": 7.6,
      "overview": "When the four Willoughby children are abandoned by their selfish parents, they must learn how to adapt their Old-Fashioned values to the contemporary world in order to create something new: The Modern Family.",
      "release_date": "2020-04-22"
    },
    {
      "popularity": 72.568,
      "vote_count": 5576,
      "video": false,
      "poster_path": "\/3iYQTLGoy7QnjcUYRJy4YrAgGvp.jpg",
      "id": 420817,
      "adult": false,
      "backdrop_path": "\/rVqY0Bo4Npf6EIONUROxjYAJfmD.jpg",
      "original_language": "en",
      "original_title": "Aladdin",
      "genre_ids": [
        12,
        35,
        14,
        10749,
        10751
      ],
      "title": "Aladdin",
      "vote_average": 7.1,
      "overview": "A kindhearted street urchin named Aladdin embarks on amagical adventure after finding a lamp that releases a wisecracking genie while a power-hungry Grand Vizier vies for the same lamp that has the power to make their deepest wishes come true.",
      "release_date": "2019-05-22"
    },
    {
      "popularity": 52.649,
      "vote_count": 89,
      "video": false,
      "poster_path": "\/jjLcdF5ZLWHho96jTbUrJCpzztD.jpg",
      "id": 466622,
      "adult": false,
      "backdrop_path": "\/a7685JYpZ6rmgkbFD3UVV5vNuhx.jpg",
      "original_language": "en",
      "original_title": "The Rhythm Section",
      "genre_ids": [
        28,
        53
      ],
      "title": "The Rhythm Section",
      "vote_average": 5.7,
      "overview": "After the death of her family in an airplane crash on a flight that she was meant to be on, Stephanie Patrick discovers the crash was not an accident. She then seeks to uncover the truth by adapting the identity of an assassin to track down those responsible.",
      "release_date": "2020-01-31"
    },
    {
      "popularity": 67.772,
      "vote_count": 12300,
      "video": false,
      "poster_path": "\/tQf4DUygWo64AOuqgk4jEDCE3Ws.jpg",
      "id": 210577,
      "adult": false,
      "backdrop_path": "\/5Tqdk3eezqu945KcBtz3SYQxidN.jpg",
      "original_language": "en",
      "original_title": "Gone Girl",
      "genre_ids": [
        18,
        9648,
        53
      ],
      "title": "Gone Girl",
      "vote_average": 7.9,
      "overview": "With his wife's disappearance having become the focus of an intense media circus, a man sees the spotlight turned on him when it's suspected that he may not be innocent.",
      "release_date": "2014-10-01"
    },
    {
      "popularity": 61.25,
      "vote_count": 106,
      "video": false,
      "poster_path": "\/h1JzHjFJXNJb3QTCwWmm2UbWEwn.jpg",
      "id": 585244,
      "adult": false,
      "backdrop_path": "\/rMkheZl9Zi2auEQp877cOWUTCKs.jpg",
      "original_language": "en",
      "original_title": "I Still Believe",
      "genre_ids": [
        18,
        10402
      ],
      "title": "I Still Believe",
      "vote_average": 7.1,
      "overview": "The true-life story of Christian music star Jeremy Camp and his journey of love and loss that looks to prove there is always hope.",
      "release_date": "2020-03-12"
    },
    {
      "popularity": 64.587,
      "vote_count": 16495,
      "video": false,
      "poster_path": "\/wuMc08IPKEatf9rnMNXvIDxqP4W.jpg",
      "id": 671,
      "adult": false,
      "backdrop_path": "\/hziiv14OpD73u9gAak4XDDfBKa2.jpg",
      "original_language": "en",
      "original_title": "Harry Potter and the Philosopher's Stone",
      "genre_ids": [
        12,
        14,
        10751
      ],
      "title": "Harry Potter and the Philosopher's Stone",
      "vote_average": 7.9,
      "overview": "Harry Potter has lived under the stairs at his aunt and uncle's house his whole life. But on his 11th birthday, he learns he's a powerful wizard -- with a place waiting for him at the Hogwarts School of Witchcraft and Wizardry. As he learns to harness his newfound powers with the help of the school's kindly headmaster, Harry uncovers the truth about his parents' deaths -- and about the villain who's to blame.",
      "release_date": "2001-11-16"
    },
    {
      "popularity": 73.843,
      "vote_count": 3993,
      "video": false,
      "poster_path": "\/h6Wi81XNXCjTAcdstiCLRykN3Pa.jpg",
      "id": 330457,
      "adult": false,
      "backdrop_path": "\/xJWPZIYOEFIjZpBL7SVBGnzRYXp.jpg",
      "original_language": "en",
      "original_title": "Frozen II",
      "genre_ids": [
        12,
        16,
        10751
      ],
      "title": "Frozen II",
      "vote_average": 7.2,
      "overview": "Elsa, Anna, Kristoff and Olaf head far into the forest to learn the truth about an ancient mystery of their kingdom.",
      "release_date": "2019-11-20"
    },
    {
      "popularity": 63.285,
      "vote_count": 863,
      "video": false,
      "poster_path": "\/30YacPAcxpNemhhwX0PVUl9pVA3.jpg",
      "id": 431693,
      "adult": false,
      "backdrop_path": "\/qlYxtqVfu2LOdvYMMDPCSGX0Oz0.jpg",
      "original_language": "en",
      "original_title": "Spies in Disguise",
      "genre_ids": [
        28,
        12,
        16,
        35
      ],
      "title": "Spies in Disguise",
      "vote_average": 7.7,
      "overview": "Super spy Lance Sterling and scientist Walter Beckett are almost exact opposites. Lance is smooth, suave and debonair. Walter is… not. But what Walter lacks in social skills he makes up for in smarts and invention, creating the awesome gadgets Lance uses on his epic missions. But when events take an unexpected turn, Walter and Lance suddenly have to rely on each other in a whole new way.",
      "release_date": "2019-12-04"
    },
    {
      "popularity": 74.916,
      "vote_count": 6975,
      "video": false,
      "poster_path": "\/4q2NNj4S5dG2RLF9CpXsej7yXl.jpg",
      "id": 429617,
      "adult": false,
      "backdrop_path": "\/5myQbDzw3l8K9yofUXRJ4UTVgam.jpg",
      "original_language": "en",
      "original_title": "Spider-Man: Far from Home",
      "genre_ids": [
        28,
        12,
        878
      ],
      "title": "Spider-Man: Far from Home",
      "vote_average": 7.5,
      "overview": "Peter Parker and his friends go on a summer trip to Europe. However, they will hardly be able to rest - Peter will have to agree to help Nick Fury uncover the mystery of creatures that cause natural disasters and destruction throughout the continent.",
      "release_date": "2019-06-28"
    },
    {
      "popularity": 59.001,
      "vote_count": 9150,
      "video": false,
      "poster_path": "\/lvWL5ZRlYFh7M7fOvYswcRqyprI.jpg",
      "id": 194662,
      "adult": false,
      "backdrop_path": "\/s0OrExdg7i3RLR7oqzHRk4q2kL4.jpg",
      "original_language": "en",
      "original_title": "Birdman or (The Unexpected Virtue of Ignorance)",
      "genre_ids": [
        35,
        18
      ],
      "title": "Birdman or (The Unexpected Virtue of Ignorance)",
      "vote_average": 7.5,
      "overview": "A fading actor best known for his portrayal of a popular superhero attempts to mount a comeback by appearing in a Broadway play. As opening night approaches, his attempts to become more altruistic, rebuild his career, and reconnect with friends and family prove more difficult than expected.",
      "release_date": "2014-08-27"
    },
    {
      "popularity": 63.774,
      "vote_count": 22111,
      "video": false,
      "poster_path": "\/RYMX2wcKCBAr24UyPD7xwmjaTn.jpg",
      "id": 24428,
      "adult": false,
      "backdrop_path": "\/v3A0T4fAz8xRugAkfUVkxGLd377.jpg",
      "original_language": "en",
      "original_title": "The Avengers",
      "genre_ids": [
        28,
        12,
        878
      ],
      "title": "The Avengers",
      "vote_average": 7.7,
      "overview": "When an unexpected enemy emerges and threatens global safety and security, Nick Fury, director of the international peacekeeping agency known as S.H.I.E.L.D., finds himself in need of a team to pull the world back from the brink of disaster. Spanning the globe, a daring recruitment effort begins!",
      "release_date": "2012-04-25"
    },
    {
      "popularity": 63.801,
      "vote_count": 1264,
      "video": false,
      "poster_path": "\/xnjvwfDulnOCy8qtYX0iqydmMhk.jpg",
      "id": 448119,
      "adult": false,
      "backdrop_path": "\/xcUf6yIheo78btFqihlRLftdR3M.jpg",
      "original_language": "en",
      "original_title": "Dolittle",
      "genre_ids": [
        12,
        35,
        14,
        10751
      ],
      "title": "Dolittle",
      "vote_average": 6.8,
      "overview": "After losing his wife seven years earlier, the eccentric Dr. John Dolittle, famed doctor and veterinarian of Queen Victoria’s England, hermits himself away behind the high walls of Dolittle Manor with only his menagerie of exotic animals for company. But when the young queen falls gravely ill, a reluctant Dolittle is forced to set sail on an epic adventure to a mythical island in search of a cure, regaining his wit and courage as he crosses old adversaries and discovers wondrous creatures.",
      "release_date": "2020-01-01"
    },
    {
      "popularity": 65.617,
      "vote_count": 146,
      "video": false,
      "poster_path": "\/zwgPO5bamUuajIAEc02q9XZ2qhq.jpg",
      "id": 529485,
      "adult": false,
      "backdrop_path": "\/5mubFanEHVFJff4jLQH0uIOThMz.jpg",
      "original_language": "en",
      "original_title": "The Way Back",
      "genre_ids": [
        18
      ],
      "title": "The Way Back",
      "vote_average": 6.6,
      "overview": "A former basketball all-star, who has lost his wife and family foundation in a struggle with addiction attempts to regain his soul and salvation by becoming the coach of a disparate ethnically mixed high school basketball team at his alma mater.",
      "release_date": "2020-03-05"
    },
    {
      "popularity": 53.995,
      "vote_count": 603,
      "video": false,
      "poster_path": "\/4YJNp1cquIkX8JxFwkKNEFQ9tgr.jpg",
      "id": 522212,
      "adult": false,
      "backdrop_path": "\/4x2AKefQtj8TmzxyRJEEdAayj1V.jpg",
      "original_language": "en",
      "original_title": "Just Mercy",
      "genre_ids": [
        80,
        18
      ],
      "title": "Just Mercy",
      "vote_average": 8.1,
      "overview": "The powerful true story of Harvard-educated lawyer Bryan Stevenson, who goes to Alabama to defend the disenfranchised and wrongly condemned — including Walter McMillian, a man sentenced to death despite evidence proving his innocence. Bryan fights tirelessly for Walter with the system stacked against them.",
      "release_date": "2019-12-25"
    },
    {
      "popularity": 59.304,
      "vote_count": 1568,
      "video": false,
      "poster_path": "\/5EufsDwXdY2CVttYOk2WtYhgKpa.jpg",
      "id": 570670,
      "adult": false,
      "backdrop_path": "\/uZMZyvarQuXLRqf3xdpdMqzdtjb.jpg",
      "original_language": "en",
      "original_title": "The Invisible Man",
      "genre_ids": [
        27,
        878,
        53
      ],
      "title": "The Invisible Man",
      "vote_average": 7.2,
      "overview": "When Cecilia's abusive ex takes his own life and leaves her his fortune, she suspects his death was a hoax. As a series of coincidences turn lethal, Cecilia works to prove that she is being hunted by someone nobody can see.",
      "release_date": "2020-02-26"
    }
  ]
}
