{
  "page": 2,
  "total_results": 5292,
  "total_pages": 265,
  "results": [
    {
      "popularity": 16.432,
      "vote_count": 37,
      "video": false,
      "poster_path": "\/zGVbrulkupqpbwgiNedkJPyQum4.jpg",
      "id": 592350,
      "adult": false,
      "backdrop_path": "\/9guoVF7zayiiUq5ulKQpt375VIy.jpg",
      "original_language": "ja",
      "original_title": "僕のヒーローアカデミア THE MOVIE ヒーローズ：ライジング",
      "genre_ids": [
        28,
        16
      ],
      "title": "My Hero Academia: Heroes Rising",
      "vote_average": 8.2,
      "overview": "Class 1-A visits Nabu Island where they finally get to do some real hero work. The place is so peaceful that it's more like a vacation … until they're attacked by a villain with an unfathomable Quirk! His power is eerily familiar, and it looks like Shigaraki had a hand in the plan. But with All Might retired and citizens' lives on the line, there's no time for questions. Deku and his friends are the next generation of heroes, and they're the island's only hope.",
      "release_date": "2020-12-20"
    },
    {
      "popularity": 13.735,
      "vote_count": 10,
      "video": false,
      "poster_path": "\/pZsrojKJykh662OVJja9lvBYsF.jpg",
      "id": 546724,
      "adult": false,
      "backdrop_path": "\/eCsZ308EYalJfq4hcrOjPmbNu5q.jpg",
      "original_language": "en",
      "original_title": "We Summon the Darkness",
      "genre_ids": [
        27,
        53
      ],
      "title": "We Summon the Darkness",
      "vote_average": 6.5,
      "overview": "The film is set in the Midwest against a backdrop involving a killing spree thought to be orchestrated by a satanic cult. Three best friends embark on a road trip to a heavy-metal show, where they bond with three aspiring musicians and head off to one of the girls’ country home for an afterparty. A night of fun and youthful debauchery takes a deadly turn as bodies begin to pile up, with each side thinking the other hides the killer.",
      "release_date": "2020-12-13"
    },
    {
      "popularity": 11.915,
      "vote_count": 0,
      "video": false,
      "poster_path": "\/uDR6esmRBE5Cc9j8OFOGzaA0Zfb.jpg",
      "id": 658767,
      "adult": false,
      "backdrop_path": "\/jkAaF6Ou9hPImgA3RxrtHu5k0Tj.jpg",
      "original_language": "hi",
      "original_title": "Intercourse",
      "genre_ids": [],
      "title": "Intercourse",
      "vote_average": 0,
      "overview": "",
      "release_date": "2020-12-25"
    },
    {
      "popularity": 9.202,
      "vote_count": 70,
      "video": false,
      "poster_path": "\/iqRUOtbDunNq7gTux3zXz25Krwp.jpg",
      "id": 652722,
      "adult": false,
      "backdrop_path": "\/6cqogY7SYppI0ZNchaTKszSkxwH.jpg",
      "original_language": "es",
      "original_title": "En brazos de un asesino",
      "genre_ids": [
        53,
        10749
      ],
      "title": "In the Arms of an Assassin",
      "vote_average": 8,
      "overview": "Victor (William Levy) is one of the world’s most handsome  men, but he has a deep secret – he is a cold blooded assassin. Smooth talking and seductive, Victor was raised to do one thing only, which is to kill for money. When he is sent to the home of a brutal drug lord to collect payment for his most recent hit, he encounters the beautiful Sarai (Alicia Sanz), who has been forced to spend the last 9 years of her life with the drug lord.",
      "release_date": "2020-12-06"
    },
    {
      "popularity": 9.371,
      "id": 613349,
      "video": false,
      "vote_count": 59,
      "vote_average": 6.8,
      "title": "Docteur ?",
      "release_date": "2020-12-11",
      "original_language": "fr",
      "original_title": "Docteur ?",
      "genre_ids": [
        35
      ],
      "backdrop_path": "\/15cw23RMkSJX1mmg4SpTym5Ce2N.jpg",
      "adult": false,
      "overview": "On Christmas eve, Serge is the only on-call emergency doctor available. Struck by a crippling back-ache, he gets help from a pizza delivery boy who will need to step in the doctor's shoes.",
      "poster_path": "\/q4QpTm5PuCj5yshS7tc08Uu5Hql.jpg"
    },
    {
      "popularity": 11.174,
      "vote_count": 1,
      "video": false,
      "poster_path": "\/tL5hhWAPYDmha7RzxBnH5AZGutu.jpg",
      "id": 617400,
      "adult": false,
      "backdrop_path": null,
      "original_language": "ja",
      "original_title": "午前0時、キスしに来てよ",
      "genre_ids": [
        35,
        10749
      ],
      "title": "Come Kiss Me at 0:00 AM",
      "vote_average": 1,
      "overview": "A stern young girl who yearns for romance, finds herself involved with a celebrity whose image reveals a hidden persona.",
      "release_date": "2020-12-06"
    },
    {
      "popularity": 9.768,
      "vote_count": 0,
      "video": false,
      "poster_path": "\/pUyqYjo2tTZhueBVOdkhK9NKPn6.jpg",
      "id": 627494,
      "adult": false,
      "backdrop_path": null,
      "original_language": "en",
      "original_title": "When Calls the Heart: Home for Christmas",
      "genre_ids": [],
      "title": "When Calls the Heart: Home for Christmas",
      "vote_average": 0,
      "overview": "(5th holiday movie based on the television series, starring Erin Krakow, Jack Wagner, Pascale Hutton, Kavan Smith, Kevin McGarry, Chris McNally, Martin Cummins, Andrea Brooks and Paul Greene)",
      "release_date": "2020-12-25"
    },
    {
      "popularity": 11.32,
      "vote_count": 245,
      "video": false,
      "poster_path": "\/zw77BFPGJ73Lig8GwRzYj1XHq53.jpg",
      "id": 620683,
      "adult": false,
      "backdrop_path": "\/oTWT3IBGc95jmH3aH5QDXeAe9mR.jpg",
      "original_language": "pt",
      "original_title": "Minha Mãe é Uma Peça 3: O Filme",
      "genre_ids": [
        35
      ],
      "title": "My Mom is a Character 3",
      "vote_average": 8.4,
      "overview": "Dona Hermínia will have to rediscover and reinvent herself because her children are forming new families. This supermom will have to deal with a new life scenario: Marcelina is pregnant and Juliano is getting married.",
      "release_date": "2020-12-26"
    },
    {
      "popularity": 10.314,
      "vote_count": 3,
      "video": false,
      "poster_path": "\/86Bsyu4lYWxjL4yVDBfJUKfHpAF.jpg",
      "id": 655466,
      "adult": false,
      "backdrop_path": "\/5sXhHZxIuSrdriokqo2gXYEzKQi.jpg",
      "original_language": "en",
      "original_title": "Picture Perfect Royal Christmas",
      "genre_ids": [
        10749,
        10770
      ],
      "title": "Picture Perfect Royal Christmas",
      "vote_average": 6,
      "overview": "",
      "release_date": "2020-12-26"
    },
    {
      "popularity": 10.407,
      "vote_count": 199,
      "video": false,
      "poster_path": "\/hUBoidZ6R1ATmjlRQMMth2dTx6c.jpg",
      "id": 606952,
      "adult": false,
      "backdrop_path": "\/cXpIUBjrTCaFPX9dw3zzOm2Ozp9.jpg",
      "original_language": "it",
      "original_title": "La dea fortuna",
      "genre_ids": [
        18
      ],
      "title": "The Fortune Goddess",
      "vote_average": 7.3,
      "overview": "A gay couple are thrown into crisis when a friend asks them to take care of her children for a couple of days.",
      "release_date": "2020-12-19"
    },
    {
      "popularity": 12.811,
      "vote_count": 12,
      "video": false,
      "poster_path": "\/yQqMvQJ9DZV7J4WkDda5Y8yzsPw.jpg",
      "id": 576379,
      "adult": false,
      "backdrop_path": "\/eEn5Jr6cbaqvGUCNafUIDLounRA.jpg",
      "original_language": "en",
      "original_title": "Hell on the Border",
      "genre_ids": [
        12,
        37
      ],
      "title": "Hell on the Border",
      "vote_average": 5.8,
      "overview": "This epic, action-packed Western tells the incredible true story of Bass Reeves, the first black marshal in the Wild West. Having escaped from slavery after the Civil War, he arrives in Arkansas seeking a job with the law. To prove himself, he must hunt down a deadly outlaw with the help of a grizzled journeyman. As he chases the criminal deeper into the Cherokee Nation, Reeves must not only dodge bullets, but severe discrimination in hopes of earning his star--and cement his place as a cowboy legend.",
      "release_date": "2020-12-13"
    },
    {
      "popularity": 11.98,
      "vote_count": 35,
      "video": false,
      "poster_path": "\/kv78WJ2YvWyk3c32sbOGFh64xcs.jpg",
      "id": 510298,
      "adult": false,
      "backdrop_path": "\/cdMfn0Jr9RGqKkaX9HyR5l1kiYy.jpg",
      "original_language": "en",
      "original_title": "Seberg",
      "genre_ids": [
        18,
        53
      ],
      "title": "Seberg",
      "vote_average": 6,
      "overview": "An ambitious young FBI agent is assigned to investigate iconic actress Jean Seberg when she becomes embroiled in the tumultuous civil rights movement in late 1960s Los Angeles.",
      "release_date": "2020-12-13"
    },
    {
      "popularity": 12.208,
      "vote_count": 69,
      "video": false,
      "poster_path": "\/v0Air5GTsfgtjsnZyji2lH6r2b8.jpg",
      "id": 500916,
      "adult": false,
      "backdrop_path": "\/A3DD0R6vZ5SwD0qGKaU7HL5KVat.jpg",
      "original_language": "en",
      "original_title": "Primal",
      "genre_ids": [
        28
      ],
      "title": "Primal",
      "vote_average": 6.7,
      "overview": "A big-game hunter for zoos who has booked passage on a Greek shipping freighter with a fresh haul of exotic and deadly animals from the Amazon, including a rare white Jaguar - along with a political assassin being extradited to the U.S in secret. Two days into the journey, the assassin escapes and releases the captive animals, throwing the ship into chaos.",
      "release_date": "2020-12-27"
    },
    {
      "popularity": 13.999,
      "vote_count": 1,
      "video": false,
      "poster_path": "\/gsKYWasTNaZYQru4LiBx614Gk1R.jpg",
      "id": 590096,
      "adult": false,
      "backdrop_path": "\/ehAUNBVczOVbABhEPgnDNpArEHQ.jpg",
      "original_language": "tr",
      "original_title": "Mucize 2: Aşk",
      "genre_ids": [
        18
      ],
      "title": "Mucize 2: Aşk",
      "vote_average": 8,
      "overview": "",
      "release_date": "2020-12-05"
    },
    {
      "popularity": 11.118,
      "vote_count": 262,
      "video": false,
      "poster_path": "\/8NF0YG30eCDQJ5bRTNauF48C9Bu.jpg",
      "id": 587693,
      "adult": false,
      "backdrop_path": "\/uuCj46exjP6UOo976MAWACWFv1X.jpg",
      "original_language": "en",
      "original_title": "A Christmas Prince: The Royal Baby",
      "genre_ids": [
        10749,
        10751
      ],
      "title": "A Christmas Prince: The Royal Baby",
      "vote_average": 6.3,
      "overview": "Christmas brings the ultimate gift to Aldovia: a royal baby. But first, Queen Amber must help her family and kingdom by finding a missing peace treaty.",
      "release_date": "2020-12-05"
    },
    {
      "popularity": 13.386,
      "id": 474764,
      "video": false,
      "vote_count": 43,
      "vote_average": 7,
      "title": "The Lodge",
      "release_date": "2020-12-06",
      "original_language": "en",
      "original_title": "The Lodge",
      "genre_ids": [
        18,
        27,
        53
      ],
      "backdrop_path": "\/dKKDQSRnCABT47fYRuNwhDvkiZy.jpg",
      "adult": false,
      "overview": "Two siblings spend the night alone with their new stepmother. Stuck in a remote mountain cabin, the trio are terrorised by a supernatural force.",
      "poster_path": "\/9TBRVyMkMPAOAmUBf17KCYu4Gld.jpg"
    },
    {
      "popularity": 9.55,
      "id": 588787,
      "video": false,
      "vote_count": 7,
      "vote_average": 8.1,
      "title": "Ordinary Love",
      "release_date": "2020-12-06",
      "original_language": "en",
      "original_title": "Ordinary Love",
      "genre_ids": [
        18,
        10749
      ],
      "backdrop_path": "\/eIiZuMTwlEJtRJDyHeUM6jBBjVA.jpg",
      "adult": false,
      "overview": "An extraordinary look at the lives of a middle-aged couple in the midst of the wife's breast cancer diagnosis.",
      "poster_path": "\/gETplrcOQxXFFZzmmtZIHpFvond.jpg"
    },
    {
      "popularity": 7.671,
      "vote_count": 4,
      "video": false,
      "poster_path": "\/fqF8pFU4BghrKJ69kVuI0T0vOqt.jpg",
      "id": 641336,
      "adult": false,
      "backdrop_path": "\/olZ6NV6JXOcxzS44Wjnuiz1BM8x.jpg",
      "original_language": "en",
      "original_title": "The Last Right",
      "genre_ids": [
        35,
        18
      ],
      "title": "The Last Right",
      "vote_average": 6.5,
      "overview": "A comedy-drama road movie telling the story of a man bringing the body of someone he barely knows for burial with his family. His good intentions are motivated by trying to patch up his relationship with his own brother. However, en route from West Cork to Rathlin Island, both romance and family secrets emerge to complicate the trip.",
      "release_date": "2020-12-06"
    },
    {
      "popularity": 7.514,
      "vote_count": 67,
      "video": false,
      "poster_path": "\/y0aJG08dC7iWvSrWokWBIHcrvD5.jpg",
      "id": 477018,
      "adult": false,
      "backdrop_path": "\/uaC1Swfs1fo7Y9fV1iRHzLdhFHo.jpg",
      "original_language": "fr",
      "original_title": "Les Traducteurs",
      "genre_ids": [
        53
      ],
      "title": "The Translators",
      "vote_average": 7.3,
      "overview": "Nine translators have been picked by a ruthless publisher and locked in a luxury bunker to translate the highly anticipated book of a famous author in record time. Although the translators are confined to prevent any kind of leak because of the high financial stakes, a crisis erupts when someone posts the first 10 pages of the novel online and blackmails the publisher to pay 5 million euros. A hunt for the culprit inside the bunker unfolds.",
      "release_date": "2020-12-20"
    },
    {
      "popularity": 6.222,
      "vote_count": 0,
      "video": false,
      "poster_path": "\/rlCsOIm5HGZ0IADLo7j373WVBy3.jpg",
      "id": 664162,
      "adult": false,
      "backdrop_path": "\/4qSzCCLCUwFv5pYZulsJerfRzxS.jpg",
      "original_language": "en",
      "original_title": "A Rebel Born",
      "genre_ids": [
        28,
        10752
      ],
      "title": "A Rebel Born",
      "vote_average": 0,
      "overview": "A Rebel Born follows the life of Nathan Bedford Forrest, who was a brilliant and very controversial Confederate general in the War Between the States. Even now, more than 150 years after the end of the war, Forrest has remained surrounded in controversy.",
      "release_date": "2020-12-03"
    }
  ]
}
