{
  "page": 1,
  "total_results": 770,
  "total_pages": 39,
  "results": [
    {
      "popularity": 116.744,
      "vote_count": 192,
      "video": false,
      "poster_path": "\/4VlXER3FImHeFuUjBShFamhIp9M.jpg",
      "id": 664767,
      "adult": false,
      "backdrop_path": "\/vw3zNfzvnVNF7nIjpiEgcdznfeC.jpg",
      "original_language": "en",
      "original_title": "Mortal Kombat Legends: Scorpions Revenge",
      "genre_ids": [
        28,
        12,
        16,
        14
      ],
      "title": "Mortal Kombat Legends: Scorpion’s Revenge",
      "vote_average": 8.5,
      "overview": "After the vicious slaughter of his family by stone-cold mercenary Sub-Zero, Hanzo Hasashi is exiled to the torturous Netherrealm. There, in exchange for his servitude to the sinister Quan Chi, he’s given a chance to avenge his family – and is resurrected as Scorpion, a lost soul bent on revenge. Back on Earthrealm, Lord Raiden gathers a team of elite warriors – Shaolin monk Liu Kang, Special Forces officer Sonya Blade and action star Johnny Cage – an unlikely band of heroes with one chance to save humanity. To do this, they must defeat Shang Tsung’s horde of Outworld gladiators and reign over the Mortal Kombat tournament.",
      "release_date": "2020-04-12"
    },
    {
      "popularity": 107.057,
      "vote_count": 176,
      "video": false,
      "poster_path": "\/zn7feouGPU8sELez4qvpp0EtgeQ.jpg",
      "id": 624808,
      "adult": false,
      "backdrop_path": "\/jjQk4UtMyOnzcqGYiaWiyrLrcEZ.jpg",
      "original_language": "en",
      "original_title": "Love Wedding Repeat",
      "genre_ids": [
        35
      ],
      "title": "Love Wedding Repeat",
      "vote_average": 5.8,
      "overview": "While trying to make his sister's wedding day go smoothly, Jack finds himself juggling an angry ex-girlfriend, an uninvited guest with a secret, a misplaced sleep sedative, and the girl that got away in alternate versions of the same day.",
      "release_date": "2020-04-10"
    },
    {
      "popularity": 75.111,
      "vote_count": 25,
      "video": false,
      "poster_path": "\/dKgV8T3inB5EnVDg0Jeh2L6ttQ9.jpg",
      "id": 560044,
      "adult": false,
      "backdrop_path": "\/9foQsz7j1o2pGCKFGkzlxJteE5W.jpg",
      "original_language": "en",
      "original_title": "The Willoughbys",
      "genre_ids": [
        16,
        35,
        10751
      ],
      "title": "The Willoughbys",
      "vote_average": 7.6,
      "overview": "When the four Willoughby children are abandoned by their selfish parents, they must learn how to adapt their Old-Fashioned values to the contemporary world in order to create something new: The Modern Family.",
      "release_date": "2020-04-22"
    },
    {
      "popularity": 46.197,
      "vote_count": 103,
      "video": false,
      "poster_path": "\/23S0NEXXOMhhXhF566Pw5sx7hnZ.jpg",
      "id": 659067,
      "adult": false,
      "backdrop_path": "\/mnq5O3MyfHIJvunmE0fRhMrQQ89.jpg",
      "original_language": "fr",
      "original_title": "La terre et le sang",
      "genre_ids": [
        28,
        80,
        53
      ],
      "title": "Earth and Blood",
      "vote_average": 6.6,
      "overview": "A sawmill owner and his teenage daughter become tangled in a deadly feud when a drug dealer stashes stolen cocaine on their remote property.",
      "release_date": "2020-04-17"
    },
    {
      "popularity": 63.371,
      "vote_count": 2,
      "video": false,
      "poster_path": "\/nygOUcBKPHFTbxsYRFZVePqgPK6.jpg",
      "id": 545609,
      "adult": false,
      "backdrop_path": "\/n82fEBLEKaewapHo5rf5Mv0pEeD.jpg",
      "original_language": "en",
      "original_title": "Extraction",
      "genre_ids": [
        28,
        53
      ],
      "title": "Extraction",
      "vote_average": 6.5,
      "overview": "Tyler Rake, a fearless black market mercenary, embarks on the most deadly extraction of his career when he's enlisted to rescue the kidnapped son of an imprisoned international crime lord.",
      "release_date": "2020-04-24"
    },
    {
      "popularity": 30.941,
      "vote_count": 5,
      "video": false,
      "poster_path": "\/4dXeF33A7tlWggztDfyTYUmq8Zy.jpg",
      "id": 527382,
      "adult": false,
      "backdrop_path": "\/gIjsq7tEnfFGmLuxVEJhenw4y4.jpg",
      "original_language": "en",
      "original_title": "Bad Therapy",
      "genre_ids": [
        35
      ],
      "title": "Bad Therapy",
      "vote_average": 5.3,
      "overview": "Married couple Bob and Susan Howard decide to see a marriage counselor named Judy Small, who appears trustworthy but harbors dark and conflicted impulses.",
      "release_date": "2020-04-17"
    },
    {
      "popularity": 43.002,
      "vote_count": 1,
      "video": false,
      "poster_path": "\/xqBiQd7uR13xNLS9yGiKDKNBR0n.jpg",
      "id": 522406,
      "adult": false,
      "backdrop_path": "\/2VBf6N8deNZIWAMGvR7Pu62D5Al.jpg",
      "original_language": "en",
      "original_title": "The Education of FredrickFitzell",
      "genre_ids": [
        53
      ],
      "title": "The Education of Fredrick Fitzell",
      "vote_average": 5,
      "overview": "After a chance encounter with a man forgotten from his youth, Fred literally and metaphorically journeys into his past.",
      "release_date": "2020-04-23"
    },
    {
      "popularity": 36.263,
      "vote_count": 14,
      "video": false,
      "poster_path": "\/shoXcN7QU3uwCe7TbVBNf9uMSB1.jpg",
      "id": 608755,
      "adult": false,
      "backdrop_path": "\/4KE5dTlPZMtqMkfhTaDLvAaBsAC.jpg",
      "original_language": "it",
      "original_title": "Un figlio di nome Erasmus",
      "genre_ids": [
        35
      ],
      "title": "Un figlio di nome Erasmus",
      "vote_average": 7.1,
      "overview": "",
      "release_date": "2020-04-12"
    },
    {
      "popularity": 38.435,
      "vote_count": 49,
      "video": false,
      "poster_path": "\/6r83qslpsERzHzCroFSp6X4eUse.jpg",
      "id": 658751,
      "adult": false,
      "backdrop_path": "\/29D1fbU1bP9vzPvHiYr7aeGG17P.jpg",
      "original_language": "de",
      "original_title": "Betonrausch",
      "genre_ids": [
        35,
        18
      ],
      "title": "Rising High",
      "vote_average": 7,
      "overview": "Charting the rise and fall of three corrupt real estate agents who accumulate absurd wealth in no time but fall into a vortex of fraud, greed and drugs.",
      "release_date": "2020-04-17"
    },
    {
      "popularity": 41.63,
      "vote_count": 1,
      "video": false,
      "poster_path": "\/3ND0NgYAwktnXfNhA6dPwU8YbT7.jpg",
      "id": 664416,
      "adult": false,
      "backdrop_path": "\/gq79A18oGOby7JJIdPi2EpnTkbk.jpg",
      "original_language": "en",
      "original_title": "Beastie Boys Story",
      "genre_ids": [
        99,
        10402
      ],
      "title": "Beastie Boys Story",
      "vote_average": 10,
      "overview": "A live documentary experience focusing on the history and legacy of the Beastie Boys and its intimate, personal story.",
      "release_date": "2020-04-24"
    },
    {
      "popularity": 38.218,
      "vote_count": 8,
      "video": false,
      "poster_path": "\/1dugrX6FwRuN3miHi9yWqJumOYz.jpg",
      "id": 684139,
      "adult": false,
      "backdrop_path": "\/rHTmrP2D9N2XNlFdHVHw0F2cf4h.jpg",
      "original_language": "en",
      "original_title": "Behind You",
      "genre_ids": [
        27
      ],
      "title": "Behind You",
      "vote_average": 6,
      "overview": "Two young sisters find that all the mirrors in their estranged aunt's house are covered or hidden. When one of them happens upon a mirror in the basement, she unknowingly releases a malicious demon.",
      "release_date": "2020-04-17"
    },
    {
      "popularity": 39.317,
      "vote_count": 10,
      "video": false,
      "poster_path": "\/8bw5VDFWnl0tJg6qre6l2T2CqQF.jpg",
      "id": 683712,
      "adult": false,
      "backdrop_path": null,
      "original_language": "fr",
      "original_title": "Made in Senegal",
      "genre_ids": [
        99
      ],
      "title": "Made in Senegal",
      "vote_average": 10,
      "overview": "Sadio's story is the classical heroes journey and and archetype for African football players. Blessed with exceptional talent, he sets out from his village to find his destiny in the world - defying his family, social structures, doubters and injuries - to come back triumphant and able to help those around him.",
      "release_date": "2020-04-08"
    },
    {
      "popularity": 33.582,
      "vote_count": 1,
      "video": false,
      "poster_path": "\/tA1anonu6ZDcrtUxstdGxrLw2dM.jpg",
      "id": 339395,
      "adult": false,
      "backdrop_path": "\/6nuYKOPeNPPfJoHeP1wbAatNdJV.jpg",
      "original_language": "en",
      "original_title": "Georgetown",
      "genre_ids": [
        80,
        18
      ],
      "title": "Georgetown",
      "vote_average": 6,
      "overview": "Ulrich Mott, an ambitious social climber, marries a wealthy widow in Washington D.C. in order to mix with powerful political players.",
      "release_date": "2020-04-23"
    },
    {
      "popularity": 29.871,
      "vote_count": 49,
      "video": false,
      "poster_path": "\/tzg5AEEu1T7nFOCq4gKbGBObhdk.jpg",
      "id": 637157,
      "adult": false,
      "backdrop_path": "\/c6JmDkXh0o9Fs2aJ8dF7AVLem0D.jpg",
      "original_language": "en",
      "original_title": "The Main Event",
      "genre_ids": [
        35,
        10751
      ],
      "title": "The Main Event",
      "vote_average": 6.9,
      "overview": "After discovering a magical mask, an 11-year-old aspiring wrestler enters a competition to become the next WWE superstar by using special powers from a magical mask.",
      "release_date": "2020-04-10"
    },
    {
      "popularity": 22.674,
      "vote_count": 0,
      "video": false,
      "poster_path": "\/wRPxVAIRS0i3O6yYuKcVsuvl5vQ.jpg",
      "id": 627290,
      "adult": false,
      "backdrop_path": "\/5Pa914tmQH0OXZvENKUi9HxZkNY.jpg",
      "original_language": "en",
      "original_title": "Antebellum",
      "genre_ids": [
        27
      ],
      "title": "Antebellum",
      "vote_average": 0,
      "overview": "Successful author Veronica finds herself trapped in a horrifying reality and must uncover the mind-bending mystery before it's too late.",
      "release_date": "2020-04-22"
    },
    {
      "popularity": 26.806,
      "vote_count": 14,
      "video": false,
      "poster_path": "\/whGnVyQuECiLXj0oftmtq77x2HZ.jpg",
      "id": 598215,
      "adult": false,
      "backdrop_path": "\/kZSxp10hPK1hoUy4LbiWoAxk7PT.jpg",
      "original_language": "en",
      "original_title": "The Quarry",
      "genre_ids": [
        80,
        9648,
        53
      ],
      "title": "The Quarry",
      "vote_average": 6.7,
      "overview": "A man on the run from his own sins, finds himself in a small border town in Texas, impersonating a reverend. The town are quickly drawn to the man's unorthodox sermons, but so is a police chief who has his suspicions.",
      "release_date": "2020-04-17"
    },
    {
      "popularity": 27.874,
      "vote_count": 2,
      "video": false,
      "poster_path": "\/9NZdljsmvWcAGyPqzKgmdLvn97t.jpg",
      "id": 526052,
      "adult": false,
      "backdrop_path": "\/bQyIraUca3iOQYUJaGXueYBfuO9.jpg",
      "original_language": "en",
      "original_title": "Becoming",
      "genre_ids": [
        18,
        878,
        53
      ],
      "title": "Becoming",
      "vote_average": 5,
      "overview": "A couple on a road trip through America encounter a terrifying dark force older than the country itself. An evil that transforms loved ones into someone terrifying, the entity has left a trail of murdered families going back hundreds of years.",
      "release_date": "2020-04-16"
    },
    {
      "popularity": 27.948,
      "vote_count": 1,
      "video": false,
      "poster_path": "\/dd5tKFvwkmmpQWJh6SY4lzR6Zhl.jpg",
      "id": 691228,
      "adult": false,
      "backdrop_path": null,
      "original_language": "en",
      "original_title": "Driftless",
      "genre_ids": [],
      "title": "Driftless",
      "vote_average": 8,
      "overview": "When a state government shutdown closes parks on 4th of July weekend, Park Ranger Nova Abbey must protect the park from the people, and the people from each other.",
      "release_date": "2020-04-24"
    },
    {
      "popularity": 19.622,
      "vote_count": 0,
      "video": false,
      "poster_path": "\/2kQdfYBODctGt3crL10mC6A1LsF.jpg",
      "id": 664724,
      "adult": false,
      "backdrop_path": null,
      "original_language": "en",
      "original_title": "Rise of Odin's 9",
      "genre_ids": [
        28
      ],
      "title": "Rise of Odin's 9",
      "vote_average": 0,
      "overview": "We know how his story ends but see where his Journey begins.",
      "release_date": "2020-04-22"
    },
    {
      "popularity": 24.673,
      "vote_count": 0,
      "video": false,
      "poster_path": "\/dZUmZ8aNTerDWOcaiwQcjdXg1q3.jpg",
      "id": 658594,
      "adult": false,
      "backdrop_path": null,
      "original_language": "en",
      "original_title": "Never Too Late",
      "genre_ids": [
        35,
        18,
        10749
      ],
      "title": "Never Too Late",
      "vote_average": 0,
      "overview": "It has been a long time since Caine, Bronson, Angus and Wendell, AKA, ‘The Chain Breakers,’ escaped the torturous Vietnamese POW camp. They now find themselves sharing a new prison, The Hogan Hills Retirement Home for Returned Veterans. Each of the boys has an unrealised dream they want to achieve. So they band together to devise a plan to escape this new hell. But the rules of engagement have changed, in fact, they can’t even remember what they were and that’s half the problem. NEVER TOO LATE is a cross between Grumpy Old Men and The Great Escape, about four mates reconciling after years apart to teach each other that it’s never too late to chase your dreams.",
      "release_date": "2020-04-23"
    }
  ]
}
