{
  "page": 4,
  "total_results": 770,
  "total_pages": 39,
  "results": [
    {
      "popularity": 18.169,
      "vote_count": 0,
      "video": false,
      "poster_path": "\/qH7x7WkRgqjjVQXpvcz5Y8pT6cA.jpg",
      "id": 673214,
      "adult": false,
      "backdrop_path": null,
      "original_language": "en",
      "original_title": "New Men",
      "genre_ids": [],
      "title": "New Men",
      "vote_average": 0,
      "overview": "New Men chronicles one year in the life of a Russian Orthodox monastery in rural West Virginia. The monk's reflections on shedding former identities to embrace new lives of prayerful asceticism are woven together with rarely seen moments of the community’s 1,700-year-old monastic tradition. As the brotherhood prepares for Pascha, the most important Orthodox holiday, Father Justin contemplates his upcoming final vows to live in the monastery until his death.",
      "release_date": "2020-04-22"
    },
    {
      "popularity": 25.555,
      "vote_count": 0,
      "video": false,
      "poster_path": "\/dhUDMDeZAGMx1gW58fssyzptbnO.jpg",
      "id": 431582,
      "adult": false,
      "backdrop_path": "\/zRxECQXMkMZjHZJS1rozKlQ6f6l.jpg",
      "original_language": "hi",
      "original_title": "Line of Descent",
      "genre_ids": [
        80,
        18
      ],
      "title": "Line of Descent",
      "vote_average": 0,
      "overview": "A classic crime narrative in the backdrop of Delhi merges a dysfunctional, mafia family at war with each other as an undercover officer fights his demons by assisting in their downfall.",
      "release_date": "2020-04-23"
    },
    {
      "popularity": 35.419,
      "id": 614418,
      "video": false,
      "vote_count": 11,
      "vote_average": 6.7,
      "title": "7 ore per farti innamorare",
      "release_date": "2020-04-20",
      "original_language": "it",
      "original_title": "7 ore per farti innamorare",
      "genre_ids": [
        35
      ],
      "backdrop_path": "\/b5qo6A3rIC6bBBFJe2mk4cGG2Ar.jpg",
      "adult": false,
      "overview": "",
      "poster_path": "\/Al5kYL6ogwLxJXLX8kwXqNwstDl.jpg"
    },
    {
      "popularity": 24.541,
      "vote_count": 0,
      "video": false,
      "poster_path": "\/3paLM4BCP08rhBBnHle2rke9aXV.jpg",
      "id": 577032,
      "adult": false,
      "backdrop_path": "\/sfFjq1jPJaZxNjbId4R7vMFp77V.jpg",
      "original_language": "ru",
      "original_title": "Гудбай, Америка",
      "genre_ids": [
        18
      ],
      "title": "Homeland",
      "vote_average": 0,
      "overview": "Viktor Sergeyevich goes to America to visit his daughter and with horror discovers that his grandson Paul, although he speaks Russian, does not understand simple things that are familiar and understandable to every boy in Russia. Cheerless Armen is trying to gain a foothold in the United States, gradually comprehending all the delights of a fictitious marriage. For Yulia, who has long been established in the States, an unexpected problem is the inability to find a correctly prepared gefilt fish. Not so long ago, Igor moved to America in every possible way trying to disown his Russian past, calling himself Jason. It would seem that completely different people with completely different problems, but the adventurer George able to solve any problem proves that this is not so, all the heroes suffer from one ailment - they try to forget about their roots, missing the simple truth: you can leave Russia, but you can’t stop to be Russian.",
      "release_date": "2020-04-23"
    },
    {
      "popularity": 15.637,
      "vote_count": 0,
      "video": false,
      "poster_path": null,
      "id": 687290,
      "adult": false,
      "backdrop_path": null,
      "original_language": "en",
      "original_title": "Born Wild: The Next Generation",
      "genre_ids": [],
      "title": "Born Wild: The Next Generation",
      "vote_average": 0,
      "overview": "In celebration of the 50th anniversary of Earth Day, National Geographic presents BORN WILD: THE NEXT GENERATION hosted by “Good Morning America’s” co-anchor Robin Roberts. The one-hour television event presents stories of hope and gives viewers a revealing look at our planet’s next generation of baby animals and their ecosystems, which face daunting environmental changes. Filmed in stunning locations around the globe such as Australia, California, Hawaii, Minnesota, Sri Lanka and Kenya, National Geographic Explorers and ABC News correspondents take viewers on a journey to fascinating, breathtaking environments to witness and celebrate the diversity and splendor of charismatic baby animals, their families and habitats. The specialis a worldwide celebration of our vibrant planet and the animals that inhabit it.",
      "release_date": "2020-04-22"
    },
    {
      "popularity": 14.608,
      "vote_count": 0,
      "video": false,
      "poster_path": "\/s6ZiQKo4Qp2dNwTaFKO4AhblX5W.jpg",
      "id": 683594,
      "adult": false,
      "backdrop_path": null,
      "original_language": "fr",
      "original_title": "Cyril contre Goliath",
      "genre_ids": [
        99
      ],
      "title": "Cyril contre Goliath",
      "vote_average": 0,
      "overview": "Cyril, a Parisian writer, never imagined that Lacoste, the village of his childhood, could one day be privatized by the billionaire Pierre Cardin. Pushed by his son and when nothing intended him for that, he decided to take action against this takeover of a new kind and began a real showdown with the famous fashion designer.",
      "release_date": "2020-04-22"
    },
    {
      "popularity": 23.816,
      "vote_count": 3,
      "video": false,
      "poster_path": "\/8wGq9UpJ85irxQcEmSxiQH4Z3ta.jpg",
      "id": 578908,
      "adult": false,
      "backdrop_path": "\/Av4DqRXNozEDINopS6GpBiq5bEy.jpg",
      "original_language": "en",
      "original_title": "Bad Trip",
      "genre_ids": [
        35
      ],
      "title": "Bad Trip",
      "vote_average": 7.5,
      "overview": "This mix of a scripted buddy comedy road movie and a real hidden camera prank show follows the outrages misadventures of two buds stuck in a rut who embark on a cross-country road trip to NYC. The storyline sets up shocking real pranks.",
      "release_date": "2020-04-17"
    },
    {
      "popularity": 15.681,
      "vote_count": 0,
      "video": false,
      "poster_path": "\/4BQ8N6pq7oW2l4A1nbIptIgVb3m.jpg",
      "id": 613583,
      "adult": false,
      "backdrop_path": "\/sN4pRTcUdjx0mjAEC2fzOIpt3Ja.jpg",
      "original_language": "fr",
      "original_title": "Chacun chez soi",
      "genre_ids": [
        35
      ],
      "title": "Chacun chez soi",
      "vote_average": 0,
      "overview": "",
      "release_date": "2020-04-22"
    },
    {
      "popularity": 20.831,
      "vote_count": 162,
      "video": false,
      "poster_path": "\/5E7gI52iwkXV9BEo5IfTKj36Lw7.jpg",
      "id": 689249,
      "adult": false,
      "backdrop_path": "\/yEBBtk1eyZltGgJt8Z2zi3KIvvX.jpg",
      "original_language": "es",
      "original_title": "La casa de papel: El fenómeno",
      "genre_ids": [
        99
      ],
      "title": "Money Heist: The Phenomenon",
      "vote_average": 7.9,
      "overview": "A documentary on why and how 'Money Heist' sparked a wave of enthusiasm around the world for a lovable group of thieves and their professor.",
      "release_date": "2020-04-03"
    },
    {
      "popularity": 15.719,
      "vote_count": 0,
      "video": false,
      "poster_path": "\/8aeItpTWUUQmVyqkvFwYV1XwGLO.jpg",
      "id": 488707,
      "adult": false,
      "backdrop_path": null,
      "original_language": "ko",
      "original_title": "그녀의 비밀정원",
      "genre_ids": [
        18,
        10749
      ],
      "title": "Invitation",
      "vote_average": 0,
      "overview": "Two brothers fell in love with one woman, Hyun-jae. But she chose Chung-seo. And Jang-seo has been living bitter days ever since the betrayal of his younger brother and his lover. After 17 years passed, Jang-seo gets a call from her. He does not know why she’s coming back, but his heart is beating again.",
      "release_date": "2020-04-22"
    },
    {
      "popularity": 13.811,
      "vote_count": 0,
      "video": false,
      "poster_path": null,
      "id": 673748,
      "adult": false,
      "backdrop_path": null,
      "original_language": "it",
      "original_title": "Trash",
      "genre_ids": [],
      "title": "Trash",
      "vote_average": 0,
      "overview": "",
      "release_date": "2020-04-22"
    },
    {
      "popularity": 32.017,
      "vote_count": 0,
      "video": false,
      "poster_path": "\/nI0b7833JqgpE69vrWQpOnLA3WG.jpg",
      "id": 682836,
      "adult": false,
      "backdrop_path": "\/rFGsU41n2b5ezwcmrlTVyCurwBO.jpg",
      "original_language": "en",
      "original_title": "The Wind Walker",
      "genre_ids": [
        12,
        27
      ],
      "title": "The Wind Walker",
      "vote_average": 0,
      "overview": "Twenty-five years ago, a famous author traveled into the dark woods to write his greatest tale, The Wind Walker. Now, twenty-five years later, his son embarks on an adventure to finish the story his father never did.",
      "release_date": "2020-04-24"
    },
    {
      "popularity": 23.17,
      "vote_count": 0,
      "video": false,
      "poster_path": "\/sWXQzomr7PNJwiYwpxeJe7RLqjN.jpg",
      "id": 681779,
      "adult": false,
      "backdrop_path": null,
      "original_language": "id",
      "original_title": "Kemarin",
      "genre_ids": [
        99
      ],
      "title": "Kemarin",
      "vote_average": 0,
      "overview": "based on the Sunda Strait tsunami events and video footage that has never been revealed.",
      "release_date": "2020-04-23"
    },
    {
      "popularity": 13.634,
      "vote_count": 0,
      "video": false,
      "poster_path": "\/vPJwgBv9VigCbDpx37f7snhWcqC.jpg",
      "id": 653775,
      "adult": false,
      "backdrop_path": null,
      "original_language": "fr",
      "original_title": "Voir le jour",
      "genre_ids": [
        35,
        18
      ],
      "title": "Voir le jour",
      "vote_average": 0,
      "overview": "Jeanne works as an assistant in a maternity hospital in Marseille. Night and day, Jeanne and her colleagues fight to defend mothers and their babies in the face of understaffing and constant pressure from their management. Jeanne lives with Zoé, her 18 year old daughter, whom she raises alone. When a drama occurs at the maternity hospital and Zoé leaves to study in Paris, Jeanne's secret past suddenly re-emerges and pushes her to assert her life choices.",
      "release_date": "2020-04-22"
    },
    {
      "popularity": 22.336,
      "vote_count": 0,
      "video": false,
      "poster_path": "\/iASQXlZqZfERdwTnBxIRpfgKrsO.jpg",
      "id": 637881,
      "adult": false,
      "backdrop_path": null,
      "original_language": "pt",
      "original_title": "Depois a Louca Sou Eu",
      "genre_ids": [
        35
      ],
      "title": "Depois a Louca Sou Eu",
      "vote_average": 0,
      "overview": "",
      "release_date": "2020-04-23"
    },
    {
      "popularity": 30.8,
      "vote_count": 0,
      "video": false,
      "poster_path": "\/az3Y2JEpPoYABV9jxcQzLUzk0ea.jpg",
      "id": 520318,
      "adult": false,
      "backdrop_path": null,
      "original_language": "en",
      "original_title": "Fatima",
      "genre_ids": [
        18,
        10751
      ],
      "title": "Fatima",
      "vote_average": 0,
      "overview": "In 1917, outside the parish of Fátima, Portugal, a 10-year-old girl and her two younger cousins witness multiple visitations of the Virgin Mary, who tells them that only prayer and suffering will bring an end to World War I.  As secularist government officials and Church leaders try to force the children to recant their story, word of the sighting spreads across the country, inspiring religious pilgrims to flock to the site in hopes of witnessing a miracle.",
      "release_date": "2020-04-24"
    },
    {
      "popularity": 21.832,
      "vote_count": 0,
      "video": false,
      "poster_path": null,
      "id": 608980,
      "adult": false,
      "backdrop_path": "\/4W95OlkFPz9NHFeQjnN83iX5oPy.jpg",
      "original_language": "it",
      "original_title": "Tre piani",
      "genre_ids": [
        35,
        18
      ],
      "title": "Our Way",
      "vote_average": 0,
      "overview": "Follows the lives of three families who live in a three-story building in a Roman neighbourhood.",
      "release_date": "2020-04-23"
    },
    {
      "popularity": 19.898,
      "vote_count": 114,
      "video": false,
      "poster_path": "\/jFzPMOJrjZfwCxllm3IIEKN7ceF.jpg",
      "id": 615177,
      "adult": false,
      "backdrop_path": "\/426KnUJTTdMhO3x2AqdT67cmCk0.jpg",
      "original_language": "en",
      "original_title": "Coffee & Kareem",
      "genre_ids": [
        28,
        35
      ],
      "title": "Coffee & Kareem",
      "vote_average": 5.5,
      "overview": "A Detroit cop reluctantly teams with his girlfriend's 11-year-old son to clear his name and take down the city's most ruthless criminal.",
      "release_date": "2020-04-03"
    },
    {
      "popularity": 30.545,
      "vote_count": 0,
      "video": false,
      "poster_path": "\/vG8qBkByy9naORB6zahcntIC2N.jpg",
      "id": 679796,
      "adult": false,
      "backdrop_path": "\/tVa0v0iX7ksdfHtYdTdJglZWy5N.jpg",
      "original_language": "en",
      "original_title": "Enemy Lines",
      "genre_ids": [
        28,
        10752
      ],
      "title": "Enemy Lines",
      "vote_average": 0,
      "overview": "In the frozen, war torn landscape of occupied Poland during World War II, a crack team of allied commandos are sent on a deadly mission behind enemy lines to extract a rocket scientist from the hands of the Nazis.",
      "release_date": "2020-04-24"
    },
    {
      "popularity": 28.92,
      "vote_count": 0,
      "video": false,
      "poster_path": "\/6YCppAgj0ROJ42im3Q2ypbv2Fa0.jpg",
      "id": 664035,
      "adult": false,
      "backdrop_path": "\/iEOEESv419KdBkXQywFIIR4eTxV.jpg",
      "original_language": "en",
      "original_title": "Love Sarah",
      "genre_ids": [
        18
      ],
      "title": "Love Sarah",
      "vote_average": 0,
      "overview": "A young woman wishes to fulfill her mother's dream of opening her own bakery in Notting Hill, London. To do this, she enlists the help of an old friend and her grandma.",
      "release_date": "2020-04-24"
    }
  ]
}
