{
  "page": 1,
  "total_results": 5292,
  "total_pages": 265,
  "results": [
    {
      "popularity": 214.451,
      "vote_count": 3013,
      "video": false,
      "poster_path": "\/aQvJ5WPzZgYVDrxLX4R6cLJCEaQ.jpg",
      "id": 454626,
      "adult": false,
      "backdrop_path": "\/stmYfCUGd8Iy6kAMBr6AmWqx8Bq.jpg",
      "original_language": "en",
      "original_title": "Sonic the Hedgehog",
      "genre_ids": [
        28,
        35,
        878,
        10751
      ],
      "title": "Sonic the Hedgehog",
      "vote_average": 7.6,
      "overview": "Based on the global blockbuster videogame franchise from Sega, Sonic the Hedgehog tells the story of the world’s speediest hedgehog as he embraces his new home on Earth. In this live-action adventure comedy, Sonic and his new best friend team up to defend the planet from the evil genius Dr. Robotnik and his plans for world domination.",
      "release_date": "2020-02-12"
    },
    {
      "popularity": 181.126,
      "vote_count": 864,
      "video": false,
      "poster_path": "\/gzlbb3yeVISpQ3REd3Ga1scWGTU.jpg",
      "id": 443791,
      "adult": false,
      "backdrop_path": "\/ww7eC3BqSbFsyE5H5qMde8WkxJ2.jpg",
      "original_language": "en",
      "original_title": "Underwater",
      "genre_ids": [
        28,
        27,
        878,
        53
      ],
      "title": "Underwater",
      "vote_average": 6.4,
      "overview": "After an earthquake destroys their underwater station, six researchers must navigate two miles along the dangerous, unknown depths of the ocean floor to make it to safety in a race against time.",
      "release_date": "2020-01-08"
    },
    {
      "popularity": 172.449,
      "vote_count": 125,
      "video": false,
      "poster_path": "\/im0jKiVtVyxynKVnzOyd6efbqYE.jpg",
      "id": 664413,
      "adult": false,
      "backdrop_path": "\/gePCMmgv7r2DUO4pHZY2JE6fkKJ.jpg",
      "original_language": "pl",
      "original_title": "365 dni",
      "genre_ids": [
        18,
        10749
      ],
      "title": "365 Days",
      "vote_average": 5.3,
      "overview": "Laura, in order to save her relationship from falling apart, goes to Sicily, where she meets Massimo. A dangerous man, the head of a mafia family, kidnaps her and gives 365 days to love him.",
      "release_date": "2020-02-07"
    },
    {
      "popularity": 154.882,
      "vote_count": 3340,
      "video": false,
      "poster_path": "\/y95lQLnuNKdPAzw9F9Ab8kJ80c3.jpg",
      "id": 38700,
      "adult": false,
      "backdrop_path": "\/upUy2QhMZEmtypPW3PdieKLAHxh.jpg",
      "original_language": "en",
      "original_title": "Bad Boys for Life",
      "genre_ids": [
        28,
        80,
        53
      ],
      "title": "Bad Boys for Life",
      "vote_average": 7.2,
      "overview": "Marcus and Mike are forced to confront new threats, career changes, and midlife crises as they join the newly created elite team AMMO of the Miami police department to take down the ruthless Armando Armas, the vicious leader of a Miami drug cartel.",
      "release_date": "2020-01-15"
    },
    {
      "popularity": 140.257,
      "vote_count": 3244,
      "video": false,
      "poster_path": "\/h4VB6m0RwcicVEZvzftYZyKXs6K.jpg",
      "id": 495764,
      "adult": false,
      "backdrop_path": "\/uozb2VeD87YmhoUP1RrGWfzuCrr.jpg",
      "original_language": "en",
      "original_title": "Birds of Prey (and the Fantabulous Emancipation of One Harley Quinn)",
      "genre_ids": [
        28,
        35,
        80
      ],
      "title": "Birds of Prey (and the Fantabulous Emancipation of One Harley Quinn)",
      "vote_average": 7.2,
      "overview": "Harley Quinn joins forces with a singer, an assassin and a police detective to help a young girl who had a hit placed on her after she stole a rare diamond from a crime lord.",
      "release_date": "2020-02-05"
    },
    {
      "popularity": 138.65,
      "id": 338762,
      "video": false,
      "vote_count": 1813,
      "vote_average": 7.2,
      "title": "Bloodshot",
      "release_date": "2020-03-05",
      "original_language": "en",
      "original_title": "Bloodshot",
      "genre_ids": [
        28,
        878
      ],
      "backdrop_path": "\/ocUrMYbdjknu2TwzMHKT9PBBQRw.jpg",
      "adult": false,
      "overview": "After he and his wife are murdered, marine Ray Garrison is resurrected by a team of scientists. Enhanced with nanotechnology, he becomes a superhuman, biotech killing machine—'Bloodshot'. As Ray first trains with fellow super-soldiers, he cannot recall anything from his former life. But when his memories flood back and he remembers the man that killed both him and his wife, he breaks out of the facility to get revenge, only to discover that there's more to the conspiracy than he thought.",
      "poster_path": "\/8WUVHemHFH2ZIP6NWkwlHWsyrEL.jpg"
    },
    {
      "popularity": 107.69,
      "vote_count": 1347,
      "video": false,
      "poster_path": "\/f4aul3FyD3jv3v4bul1IrkWZvzq.jpg",
      "id": 508439,
      "adult": false,
      "backdrop_path": "\/xFxk4vnirOtUxpOEWgA1MCRfy6J.jpg",
      "original_language": "en",
      "original_title": "Onward",
      "genre_ids": [
        12,
        16,
        35,
        14,
        10751
      ],
      "title": "Onward",
      "vote_average": 8,
      "overview": "In a suburban fantasy world, two teenage elf brothers embark on an extraordinary quest to discover if there is still a little magic left out there.",
      "release_date": "2020-02-29"
    },
    {
      "popularity": 116.744,
      "vote_count": 192,
      "video": false,
      "poster_path": "\/4VlXER3FImHeFuUjBShFamhIp9M.jpg",
      "id": 664767,
      "adult": false,
      "backdrop_path": "\/vw3zNfzvnVNF7nIjpiEgcdznfeC.jpg",
      "original_language": "en",
      "original_title": "Mortal Kombat Legends: Scorpions Revenge",
      "genre_ids": [
        28,
        12,
        16,
        14
      ],
      "title": "Mortal Kombat Legends: Scorpion’s Revenge",
      "vote_average": 8.5,
      "overview": "After the vicious slaughter of his family by stone-cold mercenary Sub-Zero, Hanzo Hasashi is exiled to the torturous Netherrealm. There, in exchange for his servitude to the sinister Quan Chi, he’s given a chance to avenge his family – and is resurrected as Scorpion, a lost soul bent on revenge. Back on Earthrealm, Lord Raiden gathers a team of elite warriors – Shaolin monk Liu Kang, Special Forces officer Sonya Blade and action star Johnny Cage – an unlikely band of heroes with one chance to save humanity. To do this, they must defeat Shang Tsung’s horde of Outworld gladiators and reign over the Mortal Kombat tournament.",
      "release_date": "2020-04-12"
    },
    {
      "popularity": 107.057,
      "vote_count": 176,
      "video": false,
      "poster_path": "\/zn7feouGPU8sELez4qvpp0EtgeQ.jpg",
      "id": 624808,
      "adult": false,
      "backdrop_path": "\/jjQk4UtMyOnzcqGYiaWiyrLrcEZ.jpg",
      "original_language": "en",
      "original_title": "Love Wedding Repeat",
      "genre_ids": [
        35
      ],
      "title": "Love Wedding Repeat",
      "vote_average": 5.8,
      "overview": "While trying to make his sister's wedding day go smoothly, Jack finds himself juggling an angry ex-girlfriend, an uninvited guest with a secret, a misplaced sleep sedative, and the girl that got away in alternate versions of the same day.",
      "release_date": "2020-04-10"
    },
    {
      "popularity": 92.562,
      "vote_count": 403,
      "video": false,
      "poster_path": "\/rbrvkNWDyF1NKzvAlIHepFBSBJq.jpg",
      "id": 539537,
      "adult": false,
      "backdrop_path": "\/x80ZIVGUJ6plcUBcgVZ6DPKT7vc.jpg",
      "original_language": "en",
      "original_title": "Fantasy Island",
      "genre_ids": [
        14,
        27,
        878
      ],
      "title": "Fantasy Island",
      "vote_average": 5.7,
      "overview": "A group of contest winners arrive at an island hotel to live out their dreams, only to find themselves trapped in nightmare scenarios.",
      "release_date": "2020-02-12"
    },
    {
      "popularity": 103.158,
      "vote_count": 397,
      "video": false,
      "poster_path": "\/7W0G3YECgDAfnuiHG91r8WqgIOe.jpg",
      "id": 446893,
      "adult": false,
      "backdrop_path": "\/qsxhnirlp7y4Ae9bd11oYJSX59j.jpg",
      "original_language": "en",
      "original_title": "Trolls World Tour",
      "genre_ids": [
        12,
        16,
        35,
        14,
        10402,
        10751
      ],
      "title": "Trolls World Tour",
      "vote_average": 7.7,
      "overview": "Queen Poppy and Branch make a surprising discovery — there are other Troll worlds beyond their own, and their distinct differences create big clashes between these various tribes. When a mysterious threat puts all of the Trolls across the land in danger, Poppy, Branch, and their band of friends must embark on an epic quest to create harmony among the feuding Trolls to unite them against certain doom.",
      "release_date": "2020-03-12"
    },
    {
      "popularity": 75.616,
      "vote_count": 970,
      "video": false,
      "poster_path": "\/jtrhTYB7xSrJxR1vusu99nvnZ1g.jpg",
      "id": 522627,
      "adult": false,
      "backdrop_path": "\/tintsaQ0WLzZsTMkTiqtMB3rfc8.jpg",
      "original_language": "en",
      "original_title": "The Gentlemen",
      "genre_ids": [
        28,
        35,
        80
      ],
      "title": "The Gentlemen",
      "vote_average": 7.8,
      "overview": "American expat Mickey Pearson has built a highly profitable marijuana empire in London. When word gets out that he’s looking to cash out of the business forever it triggers plots, schemes, bribery and blackmail in an attempt to steal his domain out from under him.",
      "release_date": "2020-01-01"
    },
    {
      "popularity": 64.497,
      "vote_count": 85,
      "video": false,
      "poster_path": "\/jgLlp0jF1EDG8N1rAulAUlv9pL6.jpg",
      "id": 653744,
      "adult": false,
      "backdrop_path": "\/a2UDJvvyDANSKcBRtEDLExVK0Pg.jpg",
      "original_language": "en",
      "original_title": "Sergio",
      "genre_ids": [
        18
      ],
      "title": "Sergio",
      "vote_average": 7.1,
      "overview": "A sweeping drama set in the chaotic aftermath of the US invasion of Iraq, where the life of top UN diplomat Sergio Vieira de Mello hangs in the balance during the most treacherous mission of his career.",
      "release_date": "2020-01-28"
    },
    {
      "popularity": 75.111,
      "vote_count": 25,
      "video": false,
      "poster_path": "\/dKgV8T3inB5EnVDg0Jeh2L6ttQ9.jpg",
      "id": 560044,
      "adult": false,
      "backdrop_path": "\/9foQsz7j1o2pGCKFGkzlxJteE5W.jpg",
      "original_language": "en",
      "original_title": "The Willoughbys",
      "genre_ids": [
        16,
        35,
        10751
      ],
      "title": "The Willoughbys",
      "vote_average": 7.6,
      "overview": "When the four Willoughby children are abandoned by their selfish parents, they must learn how to adapt their Old-Fashioned values to the contemporary world in order to create something new: The Modern Family.",
      "release_date": "2020-04-22"
    },
    {
      "popularity": 52.649,
      "vote_count": 89,
      "video": false,
      "poster_path": "\/jjLcdF5ZLWHho96jTbUrJCpzztD.jpg",
      "id": 466622,
      "adult": false,
      "backdrop_path": "\/a7685JYpZ6rmgkbFD3UVV5vNuhx.jpg",
      "original_language": "en",
      "original_title": "The Rhythm Section",
      "genre_ids": [
        28,
        53
      ],
      "title": "The Rhythm Section",
      "vote_average": 5.7,
      "overview": "After the death of her family in an airplane crash on a flight that she was meant to be on, Stephanie Patrick discovers the crash was not an accident. She then seeks to uncover the truth by adapting the identity of an assassin to track down those responsible.",
      "release_date": "2020-01-31"
    },
    {
      "popularity": 61.25,
      "vote_count": 106,
      "video": false,
      "poster_path": "\/h1JzHjFJXNJb3QTCwWmm2UbWEwn.jpg",
      "id": 585244,
      "adult": false,
      "backdrop_path": "\/rMkheZl9Zi2auEQp877cOWUTCKs.jpg",
      "original_language": "en",
      "original_title": "I Still Believe",
      "genre_ids": [
        18,
        10402
      ],
      "title": "I Still Believe",
      "vote_average": 7.1,
      "overview": "The true-life story of Christian music star Jeremy Camp and his journey of love and loss that looks to prove there is always hope.",
      "release_date": "2020-03-12"
    },
    {
      "popularity": 63.801,
      "vote_count": 1264,
      "video": false,
      "poster_path": "\/xnjvwfDulnOCy8qtYX0iqydmMhk.jpg",
      "id": 448119,
      "adult": false,
      "backdrop_path": "\/xcUf6yIheo78btFqihlRLftdR3M.jpg",
      "original_language": "en",
      "original_title": "Dolittle",
      "genre_ids": [
        12,
        35,
        14,
        10751
      ],
      "title": "Dolittle",
      "vote_average": 6.8,
      "overview": "After losing his wife seven years earlier, the eccentric Dr. John Dolittle, famed doctor and veterinarian of Queen Victoria’s England, hermits himself away behind the high walls of Dolittle Manor with only his menagerie of exotic animals for company. But when the young queen falls gravely ill, a reluctant Dolittle is forced to set sail on an epic adventure to a mythical island in search of a cure, regaining his wit and courage as he crosses old adversaries and discovers wondrous creatures.",
      "release_date": "2020-01-01"
    },
    {
      "popularity": 65.617,
      "vote_count": 146,
      "video": false,
      "poster_path": "\/zwgPO5bamUuajIAEc02q9XZ2qhq.jpg",
      "id": 529485,
      "adult": false,
      "backdrop_path": "\/5mubFanEHVFJff4jLQH0uIOThMz.jpg",
      "original_language": "en",
      "original_title": "The Way Back",
      "genre_ids": [
        18
      ],
      "title": "The Way Back",
      "vote_average": 6.6,
      "overview": "A former basketball all-star, who has lost his wife and family foundation in a struggle with addiction attempts to regain his soul and salvation by becoming the coach of a disparate ethnically mixed high school basketball team at his alma mater.",
      "release_date": "2020-03-05"
    },
    {
      "popularity": 59.304,
      "vote_count": 1568,
      "video": false,
      "poster_path": "\/5EufsDwXdY2CVttYOk2WtYhgKpa.jpg",
      "id": 570670,
      "adult": false,
      "backdrop_path": "\/uZMZyvarQuXLRqf3xdpdMqzdtjb.jpg",
      "original_language": "en",
      "original_title": "The Invisible Man",
      "genre_ids": [
        27,
        878,
        53
      ],
      "title": "The Invisible Man",
      "vote_average": 7.2,
      "overview": "When Cecilia's abusive ex takes his own life and leaves her his fortune, she suspects his death was a hoax. As a series of coincidences turn lethal, Cecilia works to prove that she is being hunted by someone nobody can see.",
      "release_date": "2020-02-26"
    },
    {
      "popularity": 59.889,
      "vote_count": 150,
      "video": false,
      "poster_path": "\/n2C6jRK9PtPIs99RQhKtqGlsnsO.jpg",
      "id": 592834,
      "adult": false,
      "backdrop_path": "\/yalJdTsb6EcDX5devj2ltWXuceO.jpg",
      "original_language": "en",
      "original_title": "My Spy",
      "genre_ids": [
        28,
        35,
        10751
      ],
      "title": "My Spy",
      "vote_average": 7.1,
      "overview": "A hardened CIA operative finds himself at the mercy of a precocious 9-year-old girl, having been sent undercover to surveil her family.",
      "release_date": "2020-02-27"
    }
  ]
}
